{"data":[{"id":"5","srlNo":1,"name":"q23r","description":"waef","barcode":"8901234567890","productCode":"q23r234","strength":"234","manufacture":"Beximco Pharmaceuticals","genericName":"Paracetamol","price":150,"mrp":3,"discount":1,"vat":0,"rackNo":"wef","rackLocation":"wef","totalPurchase":0,"totalSold":0,"inStock":50,"stockStatus":"Normal","type":"Tablet","supplier":"Mr. Khan","supplierContact":"+880 1911-445566","buyingPrice":2,"packSize":{"strip":3,"box":1},"packPrice":{"strip":8.91,"box":8.91}}],"pagination":{"currentPage":1,"totalPages":3,"totalItems":3},"success":true}
